GTI/HWP/PROJECT-KOMB1/uut.vcd
$date
  Tue Apr 28 18:02:03 2020
$end
$version
  GHDL v0
$end
$timescale
  1 fs
$end
$var reg 8 ! ee_x[7:0] $end
$var reg 8 " ee_y[23:16] $end
$scope module u1 $end
$var reg 8 # x_fghij[20:13] $end
$var reg 8 $ z_abcde[20:13] $end
$var reg 1 % eof $end
$var reg 1 & clock $end
$var integer 32 ' number $end
$var reg 8 ( stim_x01[8:1] $end
$comment stim_char is not handled $end
$comment soll_char is not handled $end
$comment comment is not handled $end
$upscope $end
$scope module u2 $end
$var reg 8 ) ee_x[20:13] $end
$var reg 8 * ee_y[20:13] $end
$var reg 1 + not_a $end
$var reg 1 , not_b $end
$var reg 1 - not_c $end
$var reg 1 . not_d $end
$var reg 4 / nand_out[1:4] $end
$var reg 4 0 nor_out[1:4] $end
$scope module na $end
$var reg 2 1 x[1:2] $end
$var reg 1 2 y $end
$upscope $end
$scope module nb $end
$var reg 2 3 x[1:2] $end
$var reg 1 4 y $end
$upscope $end
$scope module nc $end
$var reg 2 5 x[1:2] $end
$var reg 1 6 y $end
$upscope $end
$scope module nd $end
$var reg 2 7 x[1:2] $end
$var reg 1 8 y $end
$upscope $end
$scope module nor_1 $end
$var reg 3 9 x[1:3] $end
$var reg 1 : y $end
$upscope $end
$scope module nor_2 $end
$var reg 3 ; x[1:3] $end
$var reg 1 < y $end
$upscope $end
$scope module nor_3 $end
$var reg 3 = x[1:3] $end
$var reg 1 > y $end
$upscope $end
$scope module nor_4 $end
$var reg 5 ? x[1:5] $end
$var reg 1 @ y $end
$upscope $end
$scope module nor_result $end
$var reg 5 A x[1:5] $end
$var reg 1 B y $end
$upscope $end
$scope module nand_1 $end
$var reg 3 C x[1:3] $end
$var reg 1 D y $end
$upscope $end
$scope module nand_2 $end
$var reg 3 E x[1:3] $end
$var reg 1 F y $end
$upscope $end
$scope module nand_3 $end
$var reg 3 G x[1:3] $end
$var reg 1 H y $end
$upscope $end
$scope module nand_4 $end
$var reg 4 I x[1:4] $end
$var reg 1 J y $end
$upscope $end
$scope module nand_result $end
$var reg 4 K x[1:4] $end
$var reg 1 L y $end
$upscope $end
$upscope $end
$enddefinitions $end
#0
bXXXXXXXX !
bXXXXXXXX "
bXXXXXXXX #
bXXXXXXXX $
0%
0&
b0 '
bXXXX0000 (
bXXXXXXXX )
bXXXXXXXX *
X+
X,
X-
X.
bXXXX /
bXXXX 0
bXX 1
X2
bXX 3
X4
bXX 5
X6
bXX 7
X8
bXXX 9
X:
bXXX ;
X<
bXXX =
X>
bXXXXX ?
X@
bXXXXX A
XB
bXXX C
XD
bXXX E
XF
bXXX G
XH
bXXXX I
XJ
bXXXX K
XL
#100000000
bXXXX0000 !
bXXXX0000 #
1&
b1 '
bXXXXX000 (
bXXXX0000 )
#200000000
0&
#300000000
bXXXXX000 !
bXXXXX000 #
1&
b10 '
bXXXX1000 (
bXXXXX000 )
#400000000
0&
#500000000
bXXXX1000 !
bXXXX1000 #
1&
b11 '
bXXXX1X00 (
bXXXX1000 )
#600000000
0&
#700000000
bXXXX1X00 !
bXXXX1X00 #
1&
b100 '
bXXXX1100 (
bXXXX1X00 )
#800000000
0&
#900000000
bXXXX1100 !
bXXXX1100 #
1&
b101 '
bXXXXX100 (
bXXXX1100 )
#1000000000
0&
#1100000000
bXXXXX100 !
bXXXXX100 #
1&
b110 '
bXXXX0100 (
bXXXXX100 )
#1200000000
0&
#1300000000
bXXXX0100 !
bXXXX0100 #
1&
b111 '
bXXXX01X0 (
bXXXX0100 )
#1400000000
0&
#1500000000
bXXXX01X0 !
bXXXX01X0 #
1&
b1000 '
bXXXX0110 (
bXXXX01X0 )
#1600000000
0&
#1700000000
bXXXX0110 !
bXXXX0110 #
1&
b1001 '
bXXXXX110 (
bXXXX0110 )
#1800000000
0&
#1900000000
bXXXXX110 !
bXXXXX110 #
1&
b1010 '
bXXXX1110 (
bXXXXX110 )
#2000000000
0&
#2100000000
bXXXX1110 !
bXXXX1110 #
1&
b1011 '
bXXXX1X10 (
bXXXX1110 )
#2200000000
0&
#2300000000
bXXXX1X10 !
bXXXX1X10 #
1&
b1100 '
bXXXX1010 (
bXXXX1X10 )
#2400000000
0&
#2500000000
bXXXX1010 !
bXXXX1010 #
1&
b1101 '
bXXXXX010 (
bXXXX1010 )
#2600000000
0&
#2700000000
bXXXXX010 !
bXXXXX010 #
1&
b1110 '
bXXXX0010 (
bXXXXX010 )
#2800000000
0&
#2900000000
bXXXX0010 !
bXXXX0010 #
1&
b1111 '
bXXXX001X (
bXXXX0010 )
#3000000000
0&
#3100000000
bXXXX001X !
bXXXX001X #
1&
b10000 '
bXXXX0011 (
bXXXX001X )
#3200000000
0&
#3300000000
bXXXX0011 !
bXXXX0011 #
1&
b10001 '
bXXXXX011 (
bXXXX0011 )
#3400000000
0&
#3500000000
bXXXXX011 !
bXXXXX011 #
1&
b10010 '
bXXXX1011 (
bXXXXX011 )
#3600000000
0&
#3700000000
bXXXX1011 !
bXXXX1011 #
1&
b10011 '
bXXXX1X11 (
bXXXX1011 )
#3800000000
0&
#3900000000
bXXXX1X11 !
bXXXX1X11 #
1&
b10100 '
bXXXX1111 (
bXXXX1X11 )
#4000000000
0&
#4100000000
bXXXX1111 !
bXXXX1111 #
1&
b10101 '
bXXXXX111 (
bXXXX1111 )
#4200000000
0&
#4300000000
bXXXXX111 !
bXXXXX111 #
1&
b10110 '
bXXXX0111 (
bXXXXX111 )
#4400000000
0&
#4500000000
bXXXX0111 !
bXXXX0111 #
1&
b10111 '
bXXXX01X1 (
bXXXX0111 )
#4600000000
0&
#4700000000
bXXXX01X1 !
bXXXX01X1 #
1&
b11000 '
bXXXX0101 (
bXXXX01X1 )
#4800000000
0&
#4900000000
bXXXX0101 !
bXXXX0101 #
1&
b11001 '
bXXXXX101 (
bXXXX0101 )
#5000000000
0&
#5100000000
bXXXXX101 !
bXXXXX101 #
1&
b11010 '
bXXXX1101 (
bXXXXX101 )
#5200000000
0&
#5300000000
bXXXX1101 !
bXXXX1101 #
1&
b11011 '
bXXXX1X01 (
bXXXX1101 )
#5400000000
0&
#5500000000
bXXXX1X01 !
bXXXX1X01 #
1&
b11100 '
bXXXX1001 (
bXXXX1X01 )
#5600000000
0&
#5700000000
bXXXX1001 !
bXXXX1001 #
1&
b11101 '
bXXXXX001 (
bXXXX1001 )
#5800000000
0&
#5900000000
bXXXXX001 !
bXXXXX001 #
1&
b11110 '
bXXXX0001 (
bXXXXX001 )
#6000000000
0&
#6100000000
bXXXX0001 !
bXXXX0001 #
1%
1&
b11111 '
bXXXX0001 )
